﻿id,est_actif,prenom,nom,email,mobile
9b1bcd82-ff8d-4dc4-8c4e-ced9420ed815,1,Albane,Trottier,albanetrottier@yopmail.com,06 56 08 20 35
2ea338e2-ee07-4bff-9e81-5b4848c99213,1,Émilie,Jolie,emiliejolie@yopmail.com,07 45 49 58 87
27a076a2-dbb4-40a2-8700-4dfc3a279964,1,Soufiane,Mamoun,qsds@tempr.email,07 56 90 66 57
a8a7183b-c465-4b6e-97f3-2e478d68ff32,1,Élodie,Bérengier,pokds@maildrop.cc,06 04 76 72 63
19419a1e-7e67-48e0-a010-fb515bedf9ce,1,Eugène,Kouamouo,isjfb@maildrop.cc,07 35 95 01 59
2b913cbe-6c5f-4497-8323-93f6c6153708,1,Julie,Thomis,obbu@maildrop.cc,06 65 20 31 07
60bd186b-a1e0-4eb0-850e-a26fd5c14ade,1,Marc,Aurèle,tyfv@maildrop.cc,07 46 09 47 48
7bafc049-2b44-4a0c-98d4-8832d6b5ac2d,1,Albert,Einstein,kogbr@maildrop.cc,06 92 22 88 42
2c6f3dbf-d086-4aff-a69d-a18abcc902f1,1,Lucas,George,s@maildrop.cc,06 92 34 53 95
745747c4-dc27-487a-be36-42d9693766a5,1,Lyna,Khoudri,s@maildrop.cc,06 17 92 26 71
46415dde-d591-4e04-a065-cef3446fbd8a,1,Nour,Zermani,s@maildrop.cc,07 73 44 12 85
e5921aba-7fd4-48e3-ad63-1b13bb162337,1,Ali,Sahim,s@maildrop.cc,06 71 04 50 25
94383a3e-477b-41ab-be17-c8ae761358bc,1,Théophile,M'Beko,s@maildrop.cc,06 66 35 74 44
10644e1d-1802-40e1-b725-79251326a394,1,Sébastien,Voltier,s@maildrop.cc,06 43 73 50 18
cebc9efc-ae86-49a7-bf92-a47daa81a28a,1,Matteo,Giordano,s@maildrop.cc,07 47 08 31 03
ccf9ab2c-049f-4c73-a8c9-403219850f63,1,Josef,Jakubowski,s@maildrop.cc,06 89 80 47 42
49b5ea89-9d14-4661-bd3c-857da4d24fbf,1,Diego,Delavega,s@maildrop.cc,07 72 81 97 88
7d353b4a-f404-4c34-a69a-0e7a0484785e,1,Geoffrey,Lebowski,s@maildrop.cc,06 69 52 06 97
a54c1e90-f9d5-408d-9c8f-67efe935a3f2,1,Alita,Dornburg,s@maildrop.cc,06 98 35 16 64
2e1221a2-45cf-4f5e-82d8-e1e9abf53207,1,João,Costa,s@maildrop.cc,06 26 92 48 29
55b0ed88-6080-4ba7-9ef2-b7426749a1fc,1,Maëla,Le Roux,s@maildrop.cc,06 19 20 78 91
a8ba7a8d-cd00-4dd4-842e-dede67354b28,1,Rose-Lynn,Noël,s@maildrop.cc,07 62 30 72 69
d1f1eaa1-220a-4cbb-962e-d207c7525cca,1,Jean-Christophe,Prigent,s@maildrop.cc,07 71 19 52 63
6adb965a-05dd-41f8-8e52-95fa5c200123,1,Apolline,de Bazelaire de Lesseux,s@maildrop.cc,07 46 31 52 20
d7911fff-a34f-489e-9d33-28dc313d9c79,1,Aylin,Özkan,s@maildrop.cc,07 87 02 67 50
e4cea2f1-96ff-4f34-8639-88bffcb0ad31,1,Davyd,Chmyhal,s@maildrop.cc,07 56 90 86 99
e79336fa-dbb8-4cd2-9118-db833604fdc6,1,Nayiri,Zakarian,s@maildrop.cc,06 53 92 47 93
3a83477c-f272-4353-8106-6f2316172514,1,François,du Bessey de Contenson,s@maildrop.cc,07 40 31 73 96
007db0e7-b3d5-421b-aef0-451361561996,1,Martial,Mondésir,s@maildrop.cc,06 75 97 29 86
fd301dd8-c3a4-4f19-8353-8d67577274a0,1,Tom,Kishida,s@maildrop.cc,06 70 32 13 19
1604f541-a84e-4a3e-9241-2496fed0af3d,1,Zainap,Bisliev,s@maildrop.cc,07 55 05 82 02
6b1a2994-f32d-4b85-8ba0-5d40b65491eb,1,Maï Ly,Pham Le,s@maildrop.cc,07 47 04 37 01
79300cdb-8c1f-4b65-b2c8-d74922778690,1,Laurent,Ramasawmy,s@maildrop.cc,06 72 09 29 62
992f9a12-d262-474c-b45e-fb778ea2937d,1,Atika,Mroudjaé,s@maildrop.cc,06 20 71 30 52
786772da-6d24-441f-84aa-3ed393ce5d05,1,Alice,Inechains,s@maildrop.cc,07 90 19 64 55
454217be-bc58-46f4-af66-bb2a133b0661,1,Laureline,Mézières,s@maildrop.cc,06 40 12 88 98
7faa5df9-75a5-47ff-9205-c090e20429d0,1,Valerian,Christin,s@maildrop.cc,06 63 07 67 44
17348800-7129-4147-80e8-2635273f4679,1,Alice,Kingsleigh,s@maildrop.cc,06 75 70 48 01
7d6a8cb1-e084-45c9-8c1f-711f8ec1ee4e,1,Amélie,Pond,s@maildrop.cc,07 41 60 49 22
dcd7b6df-c867-47ab-a8b6-cfb1b485fca6,1,Eyota,Olmsted,s@maildrop.cc,07 27 55 66 87
f56e9ac6-fe92-47e0-9cc0-d8d21246155a,1,Hapsatou,Sall,s@maildrop.cc,06 53 97 30 11
2ee00c89-de43-487d-b47b-e5320bf96234,1,Pauline,Landry,s@maildrop.cc,06 52 95 09 94
b31297d4-ef5f-43e0-bcce-2bcbc103a133,1,Ariane,Adamopoulos,s@maildrop.cc,06 51 54 24 11
fef1f30f-54ec-4d77-9e23-47ca3498b5c2,1,Frédérique,Hoschedé,s@maildrop.cc,06 59 17 89 26
6e9e236f-3b85-4af9-93aa-d4c885866a63,1,Adolphe,Dassler,s@maildrop.cc,07 23 47 64 63
f4796601-5cc1-422e-aafa-aa36d4496207,1,Ousmane,Sy,s@maildrop.cc,06 79 17 01 33
935baae9-fc97-4ec3-80c3-d6d45f713d7b,1,Anton,Kamenberg,s@maildrop.cc,07 54 82 66 19
eec318a1-1603-4831-9338-a19dcf5b37af,1,Hannah,von Schlotterstein,s@maildrop.cc,07 84 81 31 49
bcbec165-8112-4cdb-a38f-c17178ae6452,1,Jonas,van Quickenborne,s@maildrop.cc,07 69 59 25 47
a8366fac-5708-456d-b5a9-436ad3d964db,1,Tristan,Gwerz de Bran,s@maildrop.cc,06 25 19 17 08
dcc78ff0-7d51-4d8e-acf6-0c55c0c6dd2b,1,Shauni,Bax,s@maildrop.cc,07 70 57 82 23
66339900-1c84-408e-8864-349ac6f08375,1,Becky,Meyer,rebeccapurple@maildrop.cc,06 14 05 58 81
d91a4b8e-0884-4212-b065-d0e925fe8b17,1,Lucien,Maes,s@maildrop.cc,06 48 35 64 52
60a2a573-eaad-4f2f-9f5a-0f6c48bd7d0e,1,Charlotte,Van Houtte,s@maildrop.cc,07 03 36 21 87
fe8a869f-dc48-487c-b3b7-96d4ce12335d,1,Elisabeth,Seimetz,s@maildrop.cc,07 41 42 77 81
9db975bd-5830-42f0-a1c5-04b6cf2ff358,1,Mariette,Wengler,s@maildrop.cc,06 05 78 98 74
313e095d-4ac0-4546-86b5-89dbc02578f5,1,Bernard,Beicht,s@maildrop.cc,07 68 05 81 30
783e8948-39e5-489b-b89d-3a75e92ae256,1,Stéphane,Kesseler,s@maildrop.cc,06 55 69 10 66
450ce4fe-e657-4d21-a47f-bf776e44384b,1,Jackson,Lundy,s@maildrop.cc,06 95 83 26 80
5a12b4d6-2420-4487-8bf9-dae62fb2e36a,1,Amir,Hamidou,s@maildrop.cc,06 96 32 06 46
b5834f67-0b1b-41b1-abfc-7669be2a5600,1,Chaka,Ammar,s@maildrop.cc,07 22 62 22 54
53e383a0-dff8-4f16-8b45-a6298a6bffae,1,Odette,Philippe,s@maildrop.cc,06 18 55 02 02
169a4b04-f092-4336-be7c-ebd3f96c0af0,1,Gérard,Lambert,s@maildrop.cc,06 59 50 76 30
b99e924d-c043-4b38-bd31-ddbdef9d3008,1,Farrokh,Bulsara,s@maildrop.cc,07 34 88 97 69
06095be7-6a58-4840-9936-cf036bee6f11,1,Bruce,Nadjar,s@maildrop.cc,06 10 96 96 90
bfb997d1-349c-44e4-abac-b771a90c46d9,1,Steve,Bouchard,s@maildrop.cc,06 75 53 67 40
4fc0d29f-e2ea-49a7-bea3-83845ce97d5a,1,Stéphanie,Tanner,s@maildrop.cc,07 78 56 66 82
1e193570-e100-4970-9ab4-6c2cea87c687,1,Ali,Taef,s@maildrop.cc,06 15 19 22 54
9e2def33-ee9d-4b3e-98d4-780baedb25ea,1,Jade,Perrin,s@maildrop.cc,06 49 95 10 50
210adaaf-eea8-4d3e-9189-e8fa7eb7be7f,1,Louise,Mercier,s@maildrop.cc,07 87 53 37 04
a968d4f4-2712-4e83-89a3-53e0ed6e899e,1,Emma,Lefevre,s@maildrop.cc,06 93 27 24 06
c7eb8630-2e9b-4cd2-a77d-5a8a401df5af,1,Ambre,Mougeot,s@maildrop.cc,07 97 76 54 93
26fb9daa-eb4f-4824-a527-553b49fd5710,1,Romane,Bourgeois,s@maildrop.cc,06 23 39 34 24
14062fa7-e156-4093-a566-584f362492a6,1,Rosemarie,Bernard,s@maildrop.cc,06 15 19 22 54
3be1be3a-2464-41f9-8121-78cbcb001517,1,Anna,Le Roux,s@maildrop.cc,06 03 00 71 36
eb42f67f-77e2-4c9c-bd94-cfab468be415,1,Romy,Lacroix,s@maildrop.cc,06 92 45 20 73
258ce6dd-5fd3-4c0c-81c4-a09bfa022b5a,1,Lina,Poirot,s@maildrop.cc,06 28 70 08 32
e58de58c-3814-44a5-baa6-e53dbf56ad4c,1,Chloé,Masson,s@maildrop.cc,07 53 30 15 86
9d422ba5-76a2-491a-9521-9c22055dc392,1,Arnaud,Moulin,s@maildrop.cc,06 60 84 88 92
e8123e01-e16e-43ed-9219-5c50795582f8,1,Agathe,Collet,s@maildrop.cc,06 96 25 37 54
ef4284d6-3ea5-4218-96da-d3097ec25e21,1,Léna,Martin,s@maildrop.cc,07 33 82 80 21
d29099cc-f55b-4f6a-87cf-0b97d168957e,1,Angela,Sommer-Bodenburg,s@maildrop.cc,
127b944f-ef94-4131-acda-9aebdfdc88e3,1,Moojan,Asghari,s@maildrop.cc,07 04 11 18 53
31180961-fe22-48ab-8b9c-8a3f8284fa7b,1,Claudia,Orléans,s@maildrop.cc,06 84 05 05 56
d6fe9f98-4b60-4a31-8874-1499ac849d83,1,Louis,de Pointe du Lac,s@maildrop.cc,07 46 10 42 49
34ad137e-c5bd-4e99-a03a-9da66daf04d7,1,Armand,Andreï,s@maildrop.cc,07 59 46 86 63
7eed0114-4c42-4b04-ae47-d101f0b49a32,1,Pierre,Aronax,s@maildrop.cc,07 93 58 85 95
5844ba64-148c-4cca-8c55-3f1fe1cbcebd,1,Christine,Daaé,s@maildrop.cc,06 67 93 52 20
e10d7348-3678-4c2c-beae-db77172393f7,1,Garance,Dupuis,s@maildrop.cc,06 22 98 79 39
0a175934-007a-4a17-8c62-3eb00cbc231c,1,Raoul,de Chagny,s@maildrop.cc,07 06 82 08 09
caf6ee5f-b884-4258-b1c8-9297b7abf568,1,Erik,Leroux,s@maildrop.cc,07 98 61 15 29
ad4b5574-f116-4ec5-accb-00e56cbc68a2,1,Meg,Giry,s@maildrop.cc,06 13 85 41 72
0dd917a2-12af-4e3f-8435-cd0fb4562140,1,Tom,Major,s@maildrop.cc,06 30 88 47 34
509ef715-7d9f-4c91-8b09-147f33f4c195,1,Ziggy,Stardust,s@maildrop.cc,06 68 54 43 86
f8cabdb7-24b1-450b-ad65-ed03e8982756,1,Plautine,Lucazeau,s@maildrop.cc,07 15 17 32 29
144d917c-132f-4246-b1a6-a832f02a361f,1,Tiphaine,Jacob,s@maildrop.cc,06 44 13 16 93
3511c83e-b0cd-45a7-8037-a18d38bc22ee,1,Dorothée,Humbert,s@maildrop.cc,06 65 06 97 64
0176c712-44e3-4684-88bd-a76cfb2002f0,1,Morgane,Perez,s@maildrop.cc,06 60 75 73 49
3c613239-dd75-4019-a240-266359ba50b9,1,Solenn,Courcoux,s@maildrop.cc,06 50 06 37 46
396f9176-02a7-448c-99dd-35857286ebe9,1,Fleur,Lemaitre,s@maildrop.cc,07 77 87 04 95
3e45fadd-ae15-4167-b7fc-1990e4a41bce,1,Esteban,Hiro del Sol,s@maildrop.cc,07 31 93 31 05
60f88bc9-692e-42bc-b8e2-53d649c7a186,1,Théophraste,Longuet,s@maildrop.cc,07 07 99 86 75
e9789840-c232-4c67-928a-2c8dfadc5e2d,1,Esther,Allary,s@maildrop.cc,07 34 00 44 32
b1f23f63-d4b2-412c-b947-58b3eb8f4530,1,Zia,Esperanza,s@maildrop.cc,07 76 56 90 76
bff98717-af37-4542-81c6-d7184d1d12e6,1,Tao,Mu,s@maildrop.cc,07 13 52 94 62
cbde17b4-1034-4331-b9a8-8cbc6d3da760,1,Meryem,Guclu,s@maildrop.cc,07 25 03 23 77
8185936b-0741-4395-adc3-9b234628eb3f,1,Kewan,Meyer,s@maildrop.cc,06 65 43 71 24
629b9e37-60ae-483f-9bd9-411044907939,1,Süleyman,Keski̇n,s@maildrop.cc,06 66 89 70 11
24970ca4-605f-4af9-8eb2-36961dc09b59,1,Aziz,Nazari,s@maildrop.cc,
ea1f2d1b-8367-4a15-86d6-c4c82d7db328,1,Juliette,Mwangachuchu,s@maildrop.cc,
143e4541-3149-4596-9dfc-bcfa76dbcb34,1,Laïla,Mansour,s@maildrop.cc,
2af05f40-9fff-4db2-89c4-816f8c1f7a73,1,Maximilien,Laforêt,s@maildrop.cc,
